-------------------------------------------------------------------------------
Test set: devops.ilp1.controllerWithoutDb.LoginTest
-------------------------------------------------------------------------------
Tests run: 1, Failures: 0, Errors: 0, Skipped: 0, Time elapsed: 0.001 s - in devops.ilp1.controllerWithoutDb.LoginTest
