C:\Users\Bumba\DevOps\CodeBase\ILP_BookStoreWorkspace\src\test\java\devops\ilp1\controllerWithoutDb\RegisterTest.java
C:\Users\Bumba\DevOps\CodeBase\ILP_BookStoreWorkspace\src\test\java\devops\ilp1\controllerWithoutDb\LoginTest.java
C:\Users\Bumba\DevOps\CodeBase\ILP_BookStoreWorkspace\src\test\java\devops\ilp1\service\UserServiceTest.java
C:\Users\Bumba\DevOps\CodeBase\ILP_BookStoreWorkspace\src\test\java\devops\ilp1\controllerWithoutDb\ChangePasswordTest.java
C:\Users\Bumba\DevOps\CodeBase\ILP_BookStoreWorkspace\src\integration-test\java\devops\ilp1\LoginFunctionalTest.java
C:\Users\Bumba\DevOps\CodeBase\ILP_BookStoreWorkspace\src\integration-test\java\devops\ilp1\IntegrationTest.java
